close


4739// Closed
0003789// Closed
4412//Closed
4373//Closed

5943//Closed

5844-- Should do
3939//Closed
5225//Closed
03480//Closed
4929//Closed
4606-- Resolved bug


//////////////////////////wata do///////////////////
3790-- should do


//////////////////////////////////wata
5303-- Resolved